﻿<?xml version="1.0" encoding="utf-8"?>
<svg version="1.1" xmlns:xlink="http://www.w3.org/1999/xlink" width="42px" height="42px" xmlns="http://www.w3.org/2000/svg">
  <g transform="matrix(1 0 0 1 -807 -157 )">
    <path d="M 30.8984375 28.4375  C 31.2447916666666 28.0911458333333  31.41796875 27.671875  31.41796875 27.1796875  C 31.41796875 26.7057291666667  31.2447916666666 26.2955729166667  30.8984375 25.94921875  L 25.94921875 21  L 30.8984375 16.05078125  C 31.2447916666666 15.7044270833333  31.41796875 15.2942708333333  31.41796875 14.8203125  C 31.41796875 14.328125  31.2447916666666 13.9088541666667  30.8984375 13.5625  L 28.4375 11.1015625  C 28.0911458333334 10.7552083333333  27.671875 10.58203125  27.1796875 10.58203125  C 26.7057291666667 10.58203125  26.2955729166667 10.7552083333333  25.94921875 11.1015625  L 21 16.05078125  L 16.05078125 11.1015625  C 15.7044270833334 10.7552083333333  15.2942708333334 10.58203125  14.8203125 10.58203125  C 14.328125 10.58203125  13.9088541666666 10.7552083333333  13.5625 11.1015625  L 11.1015625 13.5625  C 10.7552083333334 13.9088541666667  10.58203125 14.328125  10.58203125 14.8203125  C 10.58203125 15.2942708333333  10.7552083333334 15.7044270833333  11.1015625 16.05078125  L 16.05078125 21  L 11.1015625 25.94921875  C 10.7552083333334 26.2955729166667  10.58203125 26.7057291666667  10.58203125 27.1796875  C 10.58203125 27.671875  10.7552083333334 28.0911458333333  11.1015625 28.4375  L 13.5625 30.8984375  C 13.9088541666666 31.2447916666667  14.328125 31.41796875  14.8203125 31.41796875  C 15.2942708333334 31.41796875  15.7044270833334 31.2447916666667  16.05078125 30.8984375  L 21 25.94921875  L 25.94921875 30.8984375  C 26.2955729166667 31.2447916666667  26.7057291666667 31.41796875  27.1796875 31.41796875  C 27.671875 31.41796875  28.0911458333334 31.2447916666667  28.4375 30.8984375  L 30.8984375 28.4375  Z M 39.18359375 10.458984375  C 41.0611979166666 13.6764322916667  42 17.1901041666667  42 21  C 42 24.8098958333333  41.0611979166666 28.3235677083333  39.18359375 31.541015625  C 37.3059895833334 34.7584635416667  34.7584635416666 37.3059895833333  31.541015625 39.18359375  C 28.3235677083334 41.0611979166667  24.8098958333334 42  21 42  C 17.1901041666666 42  13.6764322916666 41.0611979166667  10.458984375 39.18359375  C 7.24153645833336 37.3059895833333  4.69401041666664 34.7584635416667  2.81640625 31.541015625  C 0.938802083333356 28.3235677083333  0 24.8098958333333  0 21  C 0 17.1901041666667  0.938802083333356 13.6764322916667  2.81640625 10.458984375  C 4.69401041666664 7.24153645833334  7.24153645833336 4.69401041666666  10.458984375 2.81640625  C 13.6764322916666 0.938802083333326  17.1901041666666 0  21 0  C 24.8098958333334 0  28.3235677083334 0.938802083333326  31.541015625 2.81640625  C 34.7584635416666 4.69401041666666  37.3059895833334 7.24153645833334  39.18359375 10.458984375  Z " fill-rule="nonzero" fill="#ff0000" stroke="none" transform="matrix(1 0 0 1 807 157 )" />
  </g>
</svg>